﻿<?xml version="1.0" encoding="utf-8"?>
<CatapultTargetOutput
  GeneratedTarget="/Output/dylan_mchugh/DE-de/RMSUserManual_DE/main.htm"
  BuildVersion="12.0.5939.19336"
  AliasFile="/Output/dylan_mchugh/DE-de/RMSUserManual_DE/Data/Alias.xml">
  <Files />
  <Skins />
</CatapultTargetOutput>